

雷神大毕业状态专武命座伤害提升比较


雷电将军大毕业90级暴击60，暴伤170，充能270暴击伤害数据 

等级  武器  	  命座	暴击伤害  提升比例
90    鱼获  	  0	 	20103     --
90    鱼获  	  2	  	28718	  +8615（43%）
90    薙草之稻光  0	  	30133	  +10030（50%）
90    薙草之稻光  2	  	43047	  +22944（141%）


综上雷神专武命座对伤害提升显著：
专武提升50%；专武加命座简直起飞了，可提升141%。